C:\Users\Admin\IdeaProjects\web-functional-automation\javaselenium\src\test\java\factory\PageFactory.java
C:\Users\Admin\IdeaProjects\web-functional-automation\javaselenium\src\test\java\AddItemToCartTest.java
C:\Users\Admin\IdeaProjects\web-functional-automation\javaselenium\src\test\java\AddItemToWishListTest.java
C:\Users\Admin\IdeaProjects\web-functional-automation\javaselenium\src\test\java\PurchaseItemTest.java
C:\Users\Admin\IdeaProjects\web-functional-automation\javaselenium\src\test\java\TestBase.java
