{
  "stats": {
    "suites": 1,
    "tests": 1,
    "passes": 1,
    "pending": 0,
    "failures": 0,
    "start": "2022-10-07T05:22:57.832Z",
    "end": "2022-10-07T05:23:51.926Z",
    "duration": 54094,
    "testsRegistered": 1,
    "passPercent": 100,
    "pendingPercent": 0,
    "other": 0,
    "hasOther": false,
    "skipped": 0,
    "hasSkipped": false
  },
  "results": [
    {
      "uuid": "273ce9e2-aac4-4e55-8730-d5a80bbcadec",
      "title": "",
      "fullFile": "cypress\\e2e\\purchaseitem.cy.ts",
      "file": "cypress\\e2e\\purchaseitem.cy.ts",
      "beforeHooks": [],
      "afterHooks": [],
      "tests": [],
      "suites": [
        {
          "uuid": "5071004d-726f-4084-84e4-774bae34bd1a",
          "title": "Purchase item",
          "fullFile": "",
          "file": "",
          "beforeHooks": [],
          "afterHooks": [],
          "tests": [
            {
              "title": "Purchase an item from shopping cart",
              "fullTitle": "Purchase item Purchase an item from shopping cart",
              "timedOut": null,
              "duration": 50416,
              "state": "passed",
              "speed": "slow",
              "pass": true,
              "fail": false,
              "pending": false,
              "context": null,
              "code": "cy.visit(testdata_1.URL);\nhomepage_1.default.getSearchLabel.click();\nhomepage_1.default.enterSearchText(testdata_1.ITME_TITLE);\nhomepage_1.default.hitEnter();\nitempage_1.default.selectColor(testdata_1.COLOR);\nitempage_1.default.selectSize(testdata_1.SIZE);\nitempage_1.default.clickAddToCart();\nitempage_1.default.clickViewCart();\ncartpage_1.default.clickCheckoutProceed();\ncheckoutpage_1.default.enterFirstName(testdata_1.FIRST_NAME);\ncheckoutpage_1.default.enterLastName(testdata_1.LAST_NAME);\ncheckoutpage_1.default.enterAddress(testdata_1.ADDRESS);\ncheckoutpage_1.default.enterCity(testdata_1.CITY);\ncheckoutpage_1.default.enterPostalCode(testdata_1.POSTAL_CODE);\ncheckoutpage_1.default.enterPhone(testdata_1.PHONE_NO);\ncheckoutpage_1.default.enterEmail(testdata_1.EMAIL);\ncheckoutpage_1.default.clickOnTerms();\ncheckoutpage_1.default.clickOnPlaceOrder();\ncheckoutpage_1.default.verifyConfirmationMessage(testdata_1.CONFIRMATION_MESSAGE);",
              "err": {},
              "uuid": "2c8ac135-9347-45d9-8876-2e325e9c1e74",
              "parentUUID": "5071004d-726f-4084-84e4-774bae34bd1a",
              "isHook": false,
              "skipped": false
            }
          ],
          "suites": [],
          "passes": [
            "2c8ac135-9347-45d9-8876-2e325e9c1e74"
          ],
          "failures": [],
          "pending": [],
          "skipped": [],
          "duration": 50416,
          "root": false,
          "rootEmpty": false,
          "_timeout": 2000
        }
      ],
      "passes": [],
      "failures": [],
      "pending": [],
      "skipped": [],
      "duration": 0,
      "root": true,
      "rootEmpty": true,
      "_timeout": 2000
    }
  ],
  "meta": {
    "mocha": {
      "version": "7.0.1"
    },
    "mochawesome": {
      "options": {
        "quiet": false,
        "reportFilename": "mochawesome",
        "saveHtml": false,
        "saveJson": true,
        "consoleReporter": "spec",
        "useInlineDiffs": false,
        "code": true
      },
      "version": "7.1.3"
    },
    "marge": {
      "options": {
        "charts": true,
        "overwrite": false,
        "html": false,
        "json": true,
        "reportDir": "cypress/report/mochawesome-report"
      },
      "version": "6.2.0"
    }
  }
}